{
    "docs": [
        {
            "externalId": {
                "kpHD": null,
                "imdb": "tt0466671",
                "_id": "636221a408cbd3f0377a2949"
            },
            "logo": {
                "_id": "62f00e510f5be41246db358e",
                "url": null
            },
            "poster": null,
            "rating": {
                "_id": "6339b882c22d011bb5ea8647",
                "kp": 0,
                "imdb": 0,
                "filmCritics": 0,
                "russianFilmCritics": 0,
                "await": 0
            },
            "votes": {
                "_id": "6339b882c22d011bb5ea8648",
                "kp": 0,
                "imdb": 0,
                "filmCritics": 0,
                "russianFilmCritics": 0,
                "await": 0
            },
            "watchability": {
                "_id": "6339b882c22d011bb5ea8669",
                "items": null
            },
            "movieLength": null,
            "id": 118374,
            "type": "movie",
            "name": null,
            "description": null,
            "year": 1990,
            "alternativeName": "Ama... Bakit mo ako pinabayaan?",
            "enName": null,
            "names": [
                {
                    "_id": "6339b882c22d011bb5ea8646",
                    "name": "Ama... Bakit mo ako pinabayaan?"
                }
            ],
            "shortDescription": null,
            "releaseYears": []
        },
        {
            "externalId": {
                "kpHD": null,
                "imdb": "tt4071930",
                "_id": "6362b45208cbd3f03710cf79"
            },
            "logo": {
                "_id": "62ef37310f5be412465a849d",
                "url": null
            },
            "poster": null,
            "rating": {
                "_id": "6339c98dc22d011bb53846a6",
                "kp": 0,
                "imdb": 0,
                "filmCritics": 0,
                "russianFilmCritics": 0,
                "await": 0
            },
            "votes": {
                "_id": "6339c98dc22d011bb53846a7",
                "kp": 0,
                "imdb": 0,
                "filmCritics": 0,
                "russianFilmCritics": 0,
                "await": 0
            },
            "watchability": {
                "_id": "6339c98dc22d011bb53846b6",
                "items": null
            },
            "id": 848441,
            "type": "movie",
            "name": null,
            "description": null,
            "year": 2014,
            "alternativeName": "The Return of Sho'Nuff",
            "enName": null,
            "movieLength": null,
            "names": [
                {
                    "_id": "6339c98dc22d011bb53846a5",
                    "name": "The Return of Sho'Nuff"
                }
            ],
            "shortDescription": null,
            "releaseYears": []
        },
        {
            "externalId": {
                "kpHD": null,
                "imdb": "tt0028270",
                "tmdb": 226685,
                "_id": "63773f5b8f0a2a7d419c5a11"
            },
            "logo": {
                "_id": "62f5263c252c8469ef856cb1",
                "url": null
            },
            "poster": {
                "_id": "633999a0c22d011bb54831cc",
                "url": "https://st.kp.yandex.net/images/film_big/27310.jpg",
                "previewUrl": "https://st.kp.yandex.net/images/film_iphone/iphone360_27310.jpg"
            },
            "rating": {
                "_id": "633999a0c22d011bb54831ca",
                "kp": 0,
                "imdb": 6.4,
                "filmCritics": 0,
                "russianFilmCritics": 0,
                "await": 0
            },
            "votes": {
                "kp": 9,
                "imdb": 284,
                "filmCritics": 0,
                "russianFilmCritics": 0,
                "await": 0,
                "_id": "63ef18115951fd2ac5d78245"
            },
            "watchability": {
                "_id": "633999a0c22d011bb54831f5",
                "items": null
            },
            "movieLength": 58,
            "id": 27310,
            "type": "movie",
            "name": null,
            "description": null,
            "year": 1936,
            "alternativeName": "Smartest Girl in Town",
            "enName": null,
            "names": [
                {
                    "_id": "633999a0c22d011bb54831c9",
                    "name": "Smartest Girl in Town"
                }
            ],
            "shortDescription": null,
            "releaseYears": []
        },
        {
            "externalId": {
                "kpHD": null,
                "imdb": "tt9093232",
                "_id": "63639db108cbd3f0373cb32f"
            },
            "logo": {
                "_id": "62ea61a9b252103987fbc7b5",
                "url": null
            },
            "poster": null,
            "rating": {
                "_id": "6339d335c22d011bb55b0bd6",
                "kp": 0,
                "imdb": 0,
                "filmCritics": 0,
                "russianFilmCritics": 0,
                "await": 0
            },
            "votes": {
                "_id": "6339d335c22d011bb55b0bd7",
                "kp": 0,
                "imdb": 0,
                "filmCritics": 0,
                "russianFilmCritics": 0,
                "await": 0
            },
            "watchability": {
                "_id": "6339d335c22d011bb55b0be9",
                "items": null
            },
            "id": 1204993,
            "type": "movie",
            "name": null,
            "description": null,
            "year": null,
            "alternativeName": "July Twenty-Fifth",
            "enName": null,
            "names": [
                {
                    "_id": "6339d335c22d011bb55b0bd5",
                    "name": "July Twenty-Fifth"
                }
            ],
            "movieLength": 15,
            "shortDescription": null,
            "releaseYears": []
        },
        {
            "externalId": {
                "kpHD": "47971a62243f04c9877bea9557036c34",
                "imdb": "tt4348012",
                "tmdb": 429733,
                "_id": "6376d850d8baf233114d881c"
            },
            "logo": {
                "_id": "62ea61a8b252103987fbc760",
                "url": "https://avatars.mds.yandex.net/get-ott/1531675/2a0000017e913f68065dd7f63e02f3f8d20a/orig"
            },
            "poster": {
                "_id": "63397ed0c22d011bb58cc198",
                "url": "https://st.kp.yandex.net/images/film_big/972464.jpg",
                "previewUrl": "https://st.kp.yandex.net/images/film_iphone/iphone360_972464.jpg"
            },
            "rating": {
                "kp": 5.988,
                "imdb": 6.4,
                "filmCritics": 7.2,
                "russianFilmCritics": 0,
                "await": 0,
                "_id": "63eba98c68d824d6ca3deef4"
            },
            "votes": {
                "kp": 13550,
                "imdb": 22617,
                "filmCritics": 61,
                "russianFilmCritics": 1,
                "await": 26,
                "_id": "63f02bee5951fd2ac58ecdd9"
            },
            "watchability": {
                "items": [
                    {
                        "logo": {
                            "url": "https://avatars.mds.yandex.net/get-ott/239697/7713e586-17d1-42d1-ac62-53e9ef1e70c3/orig",
                            "_id": "63f02bee5951fd2ac58ecddc"
                        },
                        "name": "Okko",
                        "url": "https://okko.tv/movie/mayhem?utm_medium=referral&utm_source=yandex_search&utm_campaign=new_search_feed",
                        "_id": "63f02bee5951fd2ac58ecddb"
                    },
                    {
                        "logo": {
                            "url": "https://avatars.mds.yandex.net/get-ott/1672343/54096cbe-cc3b-41c9-8e44-990ebbca8d61/orig",
                            "_id": "63f02bee5951fd2ac58ecdde"
                        },
                        "name": "Wink",
                        "url": "https://wink.ru/media_items/65732331?utm_source=yandex&utm_medium=koldunschick&utm_content=name",
                        "_id": "63f02bee5951fd2ac58ecddd"
                    },
                    {
                        "logo": {
                            "url": "https://avatars.mds.yandex.net/get-ott/1672343/74a3af87-2bfa-4cdc-bc16-32a21114665b/orig",
                            "_id": "63f02bee5951fd2ac58ecde0"
                        },
                        "name": "МегаФон ТВ",
                        "url": "https://megafon.tv/movies/vods/Eksperiment_ofis_2_2017?utm_source=yandex&utm_medium=wizard&utm_campaign=Eksperiment_ofis_2_2017",
                        "_id": "63f02bee5951fd2ac58ecddf"
                    }
                ],
                "_id": "63f02bee5951fd2ac58ecdda"
            },
            "movieLength": 86,
            "id": 972464,
            "type": "movie",
            "name": "Эксперимент «Офис» 2",
            "description": "На человечество обрушился страшный вирус — заражённые совершенно не в состоянии себя контролировать. Ярость, похоть, страх и другие обычно сдерживаемые цивилизованным человеком эмоции и импульсы вырываются наружу, но через восемь часов действие вируса проходит.\n\nДерек Чо долго и упорно работал, чтобы добиться хорошей должности в крупной юридической фирме. Однажды коллега с более высоким положением и сильным влиянием подставляет его перед клиентом и перед боссом, и в это же утро в их офисный небоскреб попадает вирус. Здание оцеплено, внутри начинает твориться беспредел, и Дерек решает использовать эту возможность, чтобы восстановить справедливость.",
            "year": 2017,
            "alternativeName": "Mayhem",
            "enName": null,
            "names": [
                {
                    "_id": "63397ed0c22d011bb58cc194",
                    "name": "Эксперимент «Офис» 2"
                },
                {
                    "_id": "63397ed0c22d011bb58cc195",
                    "name": "Mayhem"
                }
            ],
            "shortDescription": "Хаос во время эпидемии дает клерку шанс отомстить своим боссам. Кровавая черная комедия в стиле Тарантино",
            "releaseYears": []
        },
        {
            "externalId": {
                "kpHD": null,
                "imdb": "tt0372930",
                "_id": "6361a23808cbd3f037dc182f"
            },
            "logo": {
                "_id": "62ea619eb252103987fbc1e2",
                "url": null
            },
            "poster": null,
            "rating": {
                "_id": "6339a91ac22d011bb59fcdbb",
                "kp": 0,
                "imdb": 0,
                "filmCritics": 0,
                "russianFilmCritics": 0,
                "await": 0
            },
            "votes": {
                "_id": "6339a91ac22d011bb59fcdbc",
                "kp": 2,
                "imdb": 0,
                "filmCritics": 0,
                "russianFilmCritics": 0,
                "await": 0
            },
            "watchability": {
                "_id": "6339a91ac22d011bb59fcdca",
                "items": null
            },
            "id": 686910,
            "type": "movie",
            "name": null,
            "description": null,
            "year": 1914,
            "alternativeName": "Fresh Fruit",
            "enName": null,
            "movieLength": null,
            "names": [
                {
                    "_id": "6339a91ac22d011bb59fcdba",
                    "name": "Fresh Fruit"
                }
            ],
            "shortDescription": null,
            "releaseYears": []
        },
        {
            "externalId": {
                "kpHD": null,
                "imdb": "tt9668814",
                "_id": "6362135608cbd3f03769f48b"
            },
            "logo": {
                "_id": "62ea619db252103987fbc117",
                "url": null
            },
            "poster": null,
            "rating": {
                "_id": "6339b6c9c22d011bb5e28cd0",
                "kp": 0,
                "imdb": 0,
                "filmCritics": 0,
                "russianFilmCritics": 0,
                "await": 0
            },
            "votes": {
                "_id": "6339b6c9c22d011bb5e28cd1",
                "kp": 1,
                "imdb": 0,
                "filmCritics": 0,
                "russianFilmCritics": 0,
                "await": 0
            },
            "watchability": {
                "_id": "6339b6c9c22d011bb5e28ce5",
                "items": null
            },
            "id": 1239558,
            "type": "movie",
            "name": null,
            "description": null,
            "year": 2018,
            "alternativeName": "Lucky Kelly",
            "enName": null,
            "movieLength": 11,
            "names": [
                {
                    "_id": "6339b6c9c22d011bb5e28ccf",
                    "name": "Lucky Kelly"
                }
            ],
            "shortDescription": null,
            "releaseYears": []
        },
        {
            "externalId": {
                "kpHD": null,
                "imdb": "tt5134932",
                "_id": "63634fb708cbd3f0379f1dcc"
            },
            "logo": {
                "_id": "62ea619bb252103987fbc046",
                "url": null
            },
            "poster": null,
            "rating": {
                "_id": "63399218c22d011bb50b9ecf",
                "kp": 0,
                "imdb": 6.6,
                "filmCritics": 0,
                "russianFilmCritics": 0,
                "await": 0
            },
            "votes": {
                "kp": 28,
                "imdb": 192,
                "filmCritics": 0,
                "russianFilmCritics": 0,
                "await": 0,
                "_id": "63d9b47cf38219e94f7509bc"
            },
            "watchability": {
                "_id": "63399218c22d011bb50b9ee8",
                "items": null
            },
            "movieLength": 11,
            "id": 944074,
            "type": "movie",
            "name": "На крыше",
            "description": null,
            "year": 2015,
            "alternativeName": "En la azotea",
            "enName": null,
            "names": [
                {
                    "_id": "63399218c22d011bb50b9ecd",
                    "name": "На крыше"
                },
                {
                    "_id": "63399218c22d011bb50b9ece",
                    "name": "En la azotea"
                }
            ],
            "shortDescription": null,
            "releaseYears": []
        },
        {
            "externalId": {
                "kpHD": null,
                "imdb": "tt4870198",
                "_id": "63631fc608cbd3f0374eb339"
            },
            "logo": {
                "_id": "62ea6199b252103987fbbf89",
                "url": null
            },
            "poster": null,
            "rating": {
                "_id": "6339ce16c22d011bb54bd260",
                "kp": 0,
                "imdb": 0,
                "filmCritics": 0,
                "russianFilmCritics": 0,
                "await": 0
            },
            "votes": {
                "_id": "6339ce16c22d011bb54bd261",
                "kp": 0,
                "imdb": 0,
                "filmCritics": 0,
                "russianFilmCritics": 0,
                "await": 0
            },
            "watchability": {
                "_id": "6339ce16c22d011bb54bd272",
                "items": null
            },
            "movieLength": 11,
            "id": 1193270,
            "type": "movie",
            "name": null,
            "description": null,
            "year": 2016,
            "alternativeName": "Jacob",
            "enName": null,
            "names": [
                {
                    "_id": "6339ce16c22d011bb54bd25f",
                    "name": "Jacob"
                }
            ],
            "shortDescription": null,
            "releaseYears": []
        },
        {
            "externalId": {
                "kpHD": null,
                "imdb": null,
                "_id": "63ee7c375951fd2ac518187f"
            },
            "logo": {
                "_id": "62ea6197b252103987fbbef8",
                "url": null
            },
            "poster": null,
            "rating": {
                "kp": 7.906,
                "imdb": 7.8,
                "filmCritics": 0,
                "russianFilmCritics": 0,
                "await": 0,
                "_id": "63ee7c375951fd2ac5181880"
            },
            "votes": {
                "kp": 209,
                "imdb": 50,
                "filmCritics": 0,
                "russianFilmCritics": 0,
                "await": 0,
                "_id": "63ee7c375951fd2ac5181881"
            },
            "watchability": {
                "_id": "6334bb6aa8faf2a0016cbb0c",
                "items": null
            },
            "id": 908193,
            "type": "movie",
            "name": null,
            "description": null,
            "year": 2013,
            "alternativeName": "Rammstein: Mein Herz brennt (Alternative Version)",
            "enName": null,
            "movieLength": 5,
            "names": [
                {
                    "_id": "6334bb6aa8faf2a0016cbafc",
                    "name": "Rammstein: Mein Herz brennt (Alternative Version)"
                }
            ],
            "shortDescription": null,
            "releaseYears": []
        }
    ],
    "total": 941515,
    "limit": 10,
    "page": 2,
    "pages": 94152
}